<svg width="68" height="19" viewBox="0 0 68 19" fill="none" xmlns="http://www.w3.org/2000/svg">
    <path d="M9.22722 0.00423191C9.33229 0.00253912 9.43736 0.00169279 9.54328 0C12.4835 5.79357 15.4245 11.5863 18.363 17.3816C18.5288 17.7057 18.6842 18.0367 18.8721 18.3507C18.8918 12.271 18.8747 6.19138 18.8807 0.111724C20.2748 0.111724 21.668 0.109185 23.0621 0.113417C23.0646 2.88197 23.0569 5.64969 23.0663 8.41824C24.9764 5.71063 26.9026 3.01486 28.8092 0.305549C28.8733 0.243762 28.9023 0.107492 29.01 0.11511C30.6193 0.0990282 32.2303 0.128652 33.8397 0.100721C33.8123 0.147273 33.7585 0.240376 33.7321 0.287774C31.7204 2.94545 29.7155 5.60906 27.7056 8.26843C27.6372 8.33953 27.5868 8.48341 27.7167 8.52489C28.2617 8.80928 28.7469 9.20116 29.1407 9.67091C29.8198 10.4555 30.246 11.4094 30.7269 12.3176C31.6683 14.1458 32.6224 15.9681 33.5604 17.7988C33.6569 17.9842 33.7713 18.1628 33.832 18.3651C33.8209 18.3761 33.7978 18.3998 33.7867 18.4108C32.2978 18.4159 30.8081 18.4133 29.3192 18.4116C28.4291 16.5453 27.5253 14.6849 26.631 12.8203C26.32 12.1602 25.8254 11.5406 25.1293 11.2571C24.4775 10.9904 23.76 10.9473 23.0629 10.9507C23.0612 13.4374 23.0612 15.9241 23.0629 18.4108C20.2491 18.4167 17.4354 18.4116 14.6207 18.4133C14.1637 17.4459 13.7101 16.4768 13.2378 15.517C10.7212 15.5339 8.20387 15.5076 5.68736 15.5297C5.25085 16.4979 4.78616 17.4527 4.33343 18.4133C2.88895 18.4116 1.44448 18.4175 0 18.4099C3.07346 12.2736 6.15974 6.14398 9.22722 0.00423191ZM7.24886 12.2685C8.72409 12.2609 10.201 12.2888 11.6763 12.255C10.9399 10.5418 9.97636 8.91846 9.45786 7.11818C8.94533 8.92269 7.98519 10.5528 7.24886 12.2685Z" fill="#D1D1D7"></path>
    <path d="M58.1985 0.00594913C58.3035 0.00425634 58.4095 0.00340987 58.5162 0.00256348C61.5777 6.144 64.6726 12.2702 67.7366 18.4108C66.2956 18.4167 64.8545 18.4117 63.4135 18.4133C62.9539 17.4527 62.5037 16.4886 62.0527 15.5238C59.537 15.5136 57.0214 15.5288 54.5057 15.5161C54.0256 16.4726 53.584 17.4485 53.1176 18.4117C50.3064 18.4133 47.4943 18.4176 44.6831 18.4091C44.6848 15.9216 44.6857 13.434 44.6822 10.9464C43.8793 10.9498 43.031 10.9964 42.3178 11.401C41.748 11.7361 41.3534 12.2939 41.0817 12.8813C40.1968 14.7222 39.3058 16.5614 38.4277 18.4049C36.8807 18.4235 35.3337 18.4108 33.7867 18.4108C33.7978 18.3998 33.8209 18.3761 33.832 18.3651C33.9362 18.2762 34.002 18.1552 34.0635 18.0359C35.2466 15.7108 36.4391 13.39 37.6316 11.07C38.1842 10.0349 38.9368 9.04206 40.0217 8.5156C40.1481 8.48175 40.1079 8.33194 40.0362 8.26761C38.0561 5.65902 36.0786 3.04874 34.0968 0.441842C34.0498 0.391059 33.9567 0.291184 33.9098 0.240401C33.9969 0.175228 34.0772 0.066043 34.207 0.110902C35.7215 0.11598 37.2361 0.110056 38.7506 0.114288C40.7349 2.87523 42.6919 5.65648 44.6805 8.41404C44.6891 5.64717 44.6814 2.88115 44.6848 0.114288C46.0772 0.110902 47.4704 0.113441 48.8628 0.112595C48.8645 4.81009 48.8636 9.50673 48.8636 14.2034C48.8722 15.594 48.8474 16.9846 48.8764 18.3744C51.9866 12.2533 55.0951 6.13046 58.1985 0.00594913ZM58.2899 7.09705C57.7773 8.91087 56.7865 10.5359 56.0723 12.2694C57.5476 12.2727 59.0228 12.2719 60.498 12.2694C59.7617 10.5461 58.7879 8.91341 58.2899 7.09705Z" fill="#D1D1D7"></path>
</svg>