<svg width="32" height="32" viewBox="0 0 32 32" fill="none" xmlns="http://www.w3.org/2000/svg">
    <path d="M10.7382 9.7577L11.1466 5.28937C11.199 4.70962 11.4661 4.1704 11.8957 3.77755C12.3252 3.38469 12.8861 3.16658 13.4682 3.16603H18.5432C19.1273 3.16366 19.6911 3.38047 20.1231 3.7736C20.5551 4.16674 20.824 4.70762 20.8766 5.28937L21.2849 9.7577M21.2616 22.241L20.8532 26.7094C20.8007 27.2911 20.5318 27.832 20.0998 28.2251C19.6678 28.6183 19.104 28.8351 18.5199 28.8327H13.4682C12.8841 28.8351 12.3204 28.6183 11.8883 28.2251C11.4563 27.832 11.1875 27.2911 11.1349 26.7094L10.7266 22.241C10.7266 22.241 12.4999 24.166 15.9999 24.166C19.4999 24.166 21.2616 22.241 21.2616 22.241Z" stroke="#0D39BE" stroke-width="2" stroke-linecap="round" stroke-linejoin="round"></path>
    <path d="M16.0002 24.1673C20.5105 24.1673 24.1668 20.511 24.1668 16.0007C24.1668 11.4903 20.5105 7.83398 16.0002 7.83398C11.4898 7.83398 7.8335 11.4903 7.8335 16.0007C7.8335 20.511 11.4898 24.1673 16.0002 24.1673Z" stroke="#0D39BE" stroke-width="2" stroke-linecap="round" stroke-linejoin="round"></path>
    <path d="M16 12.5V16L17.75 17.75" stroke="#AA002D" stroke-width="2" stroke-linecap="round" stroke-linejoin="round"></path>
</svg>