<svg width="40" height="41" viewBox="0 0 40 41" fill="none" xmlns="http://www.w3.org/2000/svg">
    <rect x="0.5" width="40" height="40.7092" rx="20" fill="#FFF4EC"></rect>
    <path d="M21.8049 24.4859V23.5103C21.8049 22.9928 21.5993 22.4965 21.2334 22.1306C20.8675 21.7647 20.3712 21.5591 19.8537 21.5591H15.9512C15.4337 21.5591 14.9374 21.7647 14.5715 22.1306C14.2056 22.4965 14 22.9928 14 23.5103V24.4859" stroke="#0D39BE" stroke-width="2" stroke-linecap="round" stroke-linejoin="round"></path>
    <path d="M17.9024 19.6079C18.98 19.6079 19.8536 18.7343 19.8536 17.6567C19.8536 16.579 18.98 15.7054 17.9024 15.7054C16.8248 15.7054 15.9512 16.579 15.9512 17.6567C15.9512 18.7343 16.8248 19.6079 17.9024 19.6079Z" stroke="#0D39BE" stroke-width="2" stroke-linecap="round" stroke-linejoin="round"></path>
    <path d="M25.732 24.486V23.5104C25.7316 23.078 25.5878 22.6581 25.3229 22.3164C25.058 21.9747 24.6872 21.7306 24.2686 21.6226" stroke="#0D39BE" stroke-width="2" stroke-linecap="round" stroke-linejoin="round"></path>
    <path d="M22.3174 15.7688C22.7371 15.8763 23.1091 16.1204 23.3748 16.4626C23.6404 16.8049 23.7846 17.2258 23.7846 17.659C23.7846 18.0923 23.6404 18.5132 23.3748 18.8555C23.1091 19.1977 22.7371 19.4418 22.3174 19.5493" stroke="#0D39BE" stroke-width="2" stroke-linecap="round" stroke-linejoin="round"></path>
    <path d="M12 15.4127V12.2908H15.5122" stroke="#AA002D" stroke-width="2" stroke-linecap="round" stroke-linejoin="round"></path>
    <path d="M28.3901 25.1688V28.2908H24.8779" stroke="#AA002D" stroke-width="2" stroke-linecap="round" stroke-linejoin="round"></path>
</svg>