<svg width="286" height="40" viewBox="0 0 286 40" fill="none" xmlns="http://www.w3.org/2000/svg">
    <path d="M120.357 39.4738H110.938V13.6843H120.357V39.4738Z" fill="#AA002D"></path>
    <path d="M144.579 38.1053C142.632 39.2105 140.737 40 137.001 40C132.634 40 129.267 37.2631 129.267 31.3684V21.1579H126.478V13.6842H129.267H138.685H144.263V21.1579H138.685V29.3684C138.685 30.5789 138.843 31.9474 140.369 31.9474C140.737 31.9474 141.579 31.8421 142.263 31.5789L144.579 38.1053Z" fill="#262626"></path>
    <path d="M175.396 26.3684C175.396 18.6316 169.871 13.1579 162.451 13.1579C154.664 13.1579 149.086 18.7894 149.086 26.5789C149.086 34.5263 154.874 40 162.609 40C168.555 40 172.396 38.1052 174.554 35.4737L169.502 29.8947C167.555 32 165.345 32.5789 163.714 32.5789C160.873 32.5789 158.715 31.3684 158.294 28.8947H175.185C175.29 28.2631 175.396 27 175.396 26.3684ZM162.399 20.3158C164.451 20.3158 165.872 21.5789 166.293 23.7895H158.294C158.715 21.5789 160.294 20.3158 162.399 20.3158Z" fill="#262626"></path>
    <path d="M191.388 40C196.702 40 200.701 38.3158 203.069 35.6842L197.544 29.5789C196.018 31.0526 194.65 31.6842 192.545 31.6842C189.493 31.6842 187.231 29.6842 187.231 26.6316C187.231 23.5263 189.441 21.5263 192.493 21.5263C193.913 21.5263 195.807 22.1579 196.912 23.6316L202.858 17.4737C199.912 14.2631 195.544 13.2105 191.598 13.2105C183.232 13.2105 177.759 18.5789 177.759 26.6842C177.759 34.6316 183.495 40 191.388 40Z" fill="#262626"></path>
    <path d="M206.047 39.4737H215.466V26.5263C215.466 23 216.939 21.4737 219.202 21.4737C221.78 21.4737 222.833 22.4737 222.833 26.1579V39.4737H232.251V23.8947C232.251 15.5263 228.305 13.1579 223.096 13.1579C220.149 13.1579 217.518 14.3158 215.571 16.5263L215.466 16.4737V0.736816H206.047V39.4737Z" fill="#262626"></path>
    <path d="M13.6282 40C18.9427 40 22.9417 38.3158 25.3096 35.6842L19.7846 29.579C18.2587 31.0526 16.8906 31.6842 14.7858 31.6842C11.734 31.6842 9.47136 29.6842 9.47136 26.6316C9.47136 23.5263 11.6813 21.5263 14.7332 21.5263C16.1539 21.5263 18.0482 22.1579 19.1532 23.6316L25.0991 17.4737C22.1525 14.2632 17.7851 13.2105 13.8387 13.2105C5.47234 13.2105 0 18.579 0 26.6842C0 34.6316 5.73543 40 13.6282 40Z" fill="#AA002D"></path>
    <path d="M41.3373 40C49.5984 40 55.4391 34.5263 55.4391 26.579C55.4391 18.6316 49.5984 13.1579 41.3373 13.1579C32.9709 13.1579 27.1829 18.6316 27.1829 26.579C27.1829 34.5263 32.9709 40 41.3373 40ZM41.3373 31.7369C38.6538 31.7369 36.6542 29.579 36.6542 26.579C36.6542 23.579 38.6011 21.4737 41.3373 21.4737C44.0735 21.4737 45.9678 23.579 45.9678 26.579C45.9678 29.579 43.9682 31.7369 41.3373 31.7369Z" fill="#AA002D"></path>
    <path d="M58.965 39.4737H68.3837V26.5263C68.3837 23 69.857 21.4737 72.1196 21.4737C74.4349 21.4737 75.4872 22.4737 75.4872 26.1579V39.4737H84.906V23.8947C84.906 15.5263 80.9596 13.1579 75.7503 13.1579C72.9615 13.1579 70.3832 14.2105 68.4889 16.4211H68.3837V13.6842H58.965V39.4737Z" fill="#AA002D"></path>
    <path d="M90.3339 40H99.9165V21.3655H104.199V13.7618H99.9165V10.1741C99.9165 8.9906 101.398 8.764 102.683 8.764C103.245 8.764 104.347 8.764 105.07 8.764C105.125 8.764 105.17 8.71923 105.17 8.664V0.1C105.17 0.0447719 105.125 -4.21725e-08 105.07 4.99296e-07C104.12 9.8168e-06 102.947 0.000146418 99.3276 0.000146418C94.0278 0.000146418 90.3339 3.21298 90.3339 10.0135V13.7618H87.9784V21.3655H90.3339V40Z" fill="#AA002D"></path>
    <path d="M110.604 0.438597C110.604 0.196366 110.801 0 111.043 0H145.245C145.487 0 145.684 0.196366 145.684 0.438596V8.33333C145.684 8.57556 145.487 8.77193 145.245 8.77193H111.043C110.801 8.77193 110.604 8.57556 110.604 8.33333V0.438597Z" fill="url(#paint0_linear)"></path>
    <path d="M110.604 0.438597C110.604 0.196366 110.801 0 111.043 0H119.813C120.055 0 120.251 0.196366 120.251 0.438596V8.33333C120.251 8.57556 120.055 8.77193 119.813 8.77193H111.043C110.801 8.77193 110.604 8.57556 110.604 8.33333V0.438597Z" fill="#AA002D"></path>
    <path d="M244.344 31.1404C244.344 30.8981 244.54 30.7018 244.782 30.7018L278.984 30.7018C279.226 30.7018 279.423 30.8981 279.423 31.1404V39.0351C279.423 39.2773 279.226 39.4737 278.984 39.4737H244.782C244.54 39.4737 244.344 39.2773 244.344 39.0351V31.1404Z" fill="url(#paint1_linear)"></path>
    <path d="M260.936 15.8385C260.936 15.5963 261.107 15.4 261.318 15.4L281.549 15.4C281.76 15.4 281.931 15.5963 281.931 15.8385V23.7315C281.931 23.9737 281.76 24.17 281.549 24.17H261.318C261.107 24.17 260.936 23.9737 260.936 23.7315V15.8385Z" fill="url(#paint2_linear)"></path>
    <path d="M244.344 0.438597C244.344 0.196366 244.54 0 244.782 0H252.675C252.917 0 253.113 0.196366 253.113 0.438596V8.33333C253.113 8.57556 252.917 8.77193 252.675 8.77193H244.782C244.54 8.77193 244.344 8.57556 244.344 8.33333V0.438597Z" fill="#AA002D"></path>
    <path d="M277.23 0.438597C277.23 0.196366 277.427 0 277.669 0H285.561C285.804 0 286 0.196366 286 0.438596V8.33333C286 8.57556 285.804 8.77193 285.561 8.77193H277.669C277.427 8.77193 277.23 8.57556 277.23 8.33333V0.438597Z" fill="#AA002D"></path>
    <path d="M261.006 0.438597C261.006 0.196366 261.203 0 261.445 0H269.338C269.58 0 269.776 0.196366 269.776 0.438596V8.33333C269.776 8.57556 269.58 8.77193 269.338 8.77193H261.445C261.203 8.77193 261.006 8.57556 261.006 8.33333V0.438597Z" fill="#AA002D"></path>
    <path d="M277.23 15.7895C277.23 15.5473 277.427 15.3509 277.669 15.3509H285.561C285.804 15.3509 286 15.5473 286 15.7895V23.6842C286 23.9265 285.804 24.1228 285.561 24.1228H277.669C277.427 24.1228 277.23 23.9265 277.23 23.6842V15.7895Z" fill="#AA002D"></path>
    <path d="M277.23 31.1404C277.23 30.8981 277.427 30.7018 277.669 30.7018H285.561C285.804 30.7018 286 30.8981 286 31.1404V39.0351C286 39.2773 285.804 39.4737 285.561 39.4737H277.669C277.427 39.4737 277.23 39.2773 277.23 39.0351V31.1404Z" fill="#AA002D"></path>
    <defs>
        <linearGradient id="paint0_linear" x1="117.182" y1="4.38596" x2="145.684" y2="4.38596" gradientUnits="userSpaceOnUse">
            <stop stop-color="#AA002D" stop-opacity="0"></stop>
            <stop offset="1" stop-color="#AA002D" stop-opacity="0.8"></stop>
        </linearGradient>
        <linearGradient id="paint1_linear" x1="279.423" y1="35.0877" x2="244.344" y2="35.0877" gradientUnits="userSpaceOnUse">
            <stop stop-color="#AA002D" stop-opacity="0"></stop>
            <stop offset="1" stop-color="#AA002D" stop-opacity="0.8"></stop>
        </linearGradient>
        <linearGradient id="paint2_linear" x1="281.931" y1="19.785" x2="260.936" y2="19.785" gradientUnits="userSpaceOnUse">
            <stop stop-color="#AA002D" stop-opacity="0"></stop>
            <stop offset="1" stop-color="#AA002D" stop-opacity="0.8"></stop>
        </linearGradient>
    </defs>
</svg>