<svg width="57" height="16" viewBox="0 0 57 16" fill="none" xmlns="http://www.w3.org/2000/svg">
    <path d="M14.3906 0H14.6226C15.4766 0.0109199 16.3434 0.151454 17.1165 0.527003C17.7936 0.850801 18.3794 1.36498 18.7765 2.00214C19.3328 2.88949 19.5377 3.97389 19.4179 5.00843C19.3485 5.54587 19.2068 6.07098 19.0541 6.58991C18.7527 7.58694 18.3932 8.56546 18.0071 9.5321C17.9629 9.61139 17.9829 9.73958 18.0908 9.7467C18.4612 9.77804 18.8359 9.73293 19.2053 9.77472C19.3114 9.81792 19.3 9.94421 19.271 10.0339C19.1045 10.6597 18.9419 11.2859 18.7769 11.9122C18.7513 12.0641 18.6072 12.1766 18.4536 12.1633C16.5493 12.1695 14.6454 12.1776 12.7411 12.1837C12.191 12.1909 11.637 12.189 11.0926 12.0992C10.2928 11.9734 9.49733 11.6658 8.90773 11.0965C8.34237 10.56 8.00953 9.81792 7.87449 9.05875C7.65149 7.80154 7.86403 6.51442 8.19925 5.29709C8.57156 3.98481 9.16829 2.70053 10.1359 1.71822C10.7013 1.14041 11.3945 0.687478 12.1534 0.40546C12.8671 0.136261 13.6303 0.0199406 14.3906 0ZM13.7182 2.5562C13.432 2.59941 13.15 2.67964 12.8885 2.80451C12.3583 3.05139 11.9394 3.48914 11.6427 3.98576C11.2481 4.64665 11.0308 5.39537 10.8729 6.14362C10.7341 6.81828 10.6466 7.52047 10.7745 8.20415C10.8544 8.62813 11.056 9.04736 11.4069 9.31228C11.7721 9.59193 12.2442 9.68213 12.6955 9.68213C13.4895 9.68213 14.2841 9.68261 15.0786 9.68213C15.2231 9.6921 15.3572 9.5829 15.3862 9.44332C15.7072 8.30528 16.0305 7.16771 16.3505 6.0292C16.5421 5.34789 16.6605 4.61578 16.4818 3.91834C16.3638 3.44308 16.0519 3.01246 15.6121 2.78647C15.0334 2.48498 14.3516 2.47406 13.7182 2.5562Z" fill="#D1D1D7"></path>
    <path d="M53.9343 1.20661C54.068 1.17006 54.2092 1.18715 54.3466 1.18382C55.1554 1.18288 55.9637 1.18762 56.7725 1.17908C56.8424 1.18382 56.9247 1.16531 56.986 1.21136C57.0283 1.27973 56.9637 1.3386 56.9299 1.3932C54.852 4.14454 52.7751 6.8973 50.6972 9.64911C50.5327 9.85469 50.4752 10.1158 50.4143 10.3655C50.2812 10.8807 50.1499 11.3963 50.0159 11.9114C49.9883 12.0591 49.8385 12.1593 49.6916 12.145C48.8975 12.1441 48.103 12.1469 47.3089 12.1441C47.2071 12.1578 47.0926 12.0709 47.1244 11.9617C47.2751 11.3322 47.4473 10.7069 47.6047 10.0783C47.6403 9.93065 47.6408 9.77445 47.6009 9.62727C47.2338 8.33208 46.8581 7.03878 46.493 5.74264C46.4492 5.64341 46.5367 5.52994 46.6432 5.54181C47.452 5.53564 48.2613 5.54133 49.0706 5.53896C49.1966 5.52614 49.334 5.59071 49.3801 5.71368C49.5019 6.15854 49.5713 6.6186 49.7044 7.05967C49.723 7.06632 49.76 7.07961 49.7786 7.08626C49.9864 6.85599 50.1352 6.57682 50.3197 6.32756C51.4385 4.69053 52.5588 3.05492 53.6771 1.41742C53.738 1.32246 53.824 1.24032 53.9343 1.20661Z" fill="#D1D1D7"></path>
    <path d="M33.1105 2.81413C34.0876 2.4533 35.1499 2.38825 36.1812 2.46042C36.9729 2.52641 37.8131 2.72202 38.3993 3.29365C38.9143 3.79122 39.1078 4.5257 39.1249 5.22172C39.1525 6.18742 38.9371 7.1384 38.7003 8.06849C38.6794 8.19953 38.5529 8.29353 38.4217 8.27977C36.8041 8.28119 35.1869 8.27977 33.5698 8.28024C33.1775 8.28641 32.7843 8.26552 32.393 8.29638C32.4396 8.29496 32.5323 8.29258 32.5789 8.29164C32.3954 8.40796 32.4015 8.63822 32.4077 8.82908C32.422 9.0679 32.5009 9.31525 32.6811 9.48143C32.8851 9.67134 33.1642 9.75015 33.4334 9.79383C33.8713 9.8641 34.3159 9.84368 34.7576 9.84701C35.6772 9.84701 36.5972 9.84701 37.5168 9.84701C37.6904 9.84606 37.8649 9.85603 38.038 9.83181C38.1031 9.87169 38.1849 9.92867 38.1744 10.0165C38.0475 10.685 37.8834 11.3454 37.7522 12.0129C37.7284 12.1649 37.571 12.2565 37.4251 12.2385C36.0766 12.2413 34.7281 12.265 33.3796 12.2513C32.4676 12.2209 31.5034 12.0984 30.735 11.5671C30.1734 11.1845 29.8382 10.5373 29.754 9.87312C29.6271 8.92736 29.8158 7.97591 30.0217 7.05532C30.2576 6.06066 30.5757 5.05508 31.1986 4.22896C31.6793 3.58279 32.3545 3.08997 33.1105 2.81413ZM34.3529 4.78255C33.654 4.8984 33.0625 5.44345 32.8775 6.12285C32.8542 6.2254 32.9503 6.30184 33.0473 6.28523C34.0772 6.2876 35.1075 6.28523 36.1374 6.28617C36.2544 6.29757 36.3795 6.23395 36.418 6.11858C36.5093 5.69413 36.4009 5.1714 35.9934 4.94588C35.497 4.67526 34.8955 4.69377 34.3529 4.78255Z" fill="#D1D1D7"></path>
    <path d="M4.9131 2.58048C4.98014 2.54154 5.06003 2.55056 5.1342 2.54724C5.86455 2.55104 6.59537 2.54392 7.32572 2.55009C7.42985 2.54249 7.51686 2.64884 7.48596 2.74902C7.35235 3.38237 7.2097 4.0143 7.07133 4.64718C7.04899 4.77157 6.93107 4.87412 6.80268 4.87032C6.04048 4.87222 5.2778 4.87175 4.51559 4.87032C4.39672 4.88694 4.2983 4.76397 4.34347 4.6524C4.47993 4.03472 4.62353 3.41846 4.7619 2.80077C4.77616 2.70914 4.82894 2.62368 4.9131 2.58048Z" fill="#D1D1D7"></path>
    <path d="M21.695 2.57935C22.4201 2.5651 23.1462 2.57602 23.8718 2.57412C23.9973 2.55608 24.0924 2.68855 24.0473 2.80392C23.7377 4.34552 23.4034 5.8819 23.1186 7.42825C23.0145 7.95858 22.8671 8.49745 22.9351 9.04155C22.9674 9.29176 23.0977 9.53911 23.3264 9.66066C23.636 9.83395 24.0045 9.82113 24.3482 9.82161C24.7605 9.81971 25.1727 9.82398 25.585 9.82018C25.7148 9.82256 25.828 9.71431 25.8484 9.58897C26.3367 7.33377 26.8255 5.07905 27.3129 2.82386C27.3295 2.69329 27.4394 2.57175 27.5773 2.5746C28.2743 2.57222 28.9719 2.57175 29.6689 2.57507C29.784 2.56558 29.8663 2.69092 29.8268 2.79585C29.1816 5.83537 28.532 8.8749 27.8844 11.914C27.8611 12.054 27.7199 12.1528 27.5806 12.1385C26.3125 12.138 25.0444 12.1385 23.7762 12.1385C23.2827 12.1357 22.7844 12.1604 22.2975 12.0621C21.7839 11.9667 21.2775 11.7411 20.9252 11.3466C20.5149 10.8946 20.3437 10.2788 20.299 9.6825C20.2419 8.88772 20.366 8.09247 20.5315 7.31715C20.8491 5.81306 21.1658 4.30849 21.4853 2.80439C21.5001 2.69662 21.5861 2.59976 21.695 2.57935Z" fill="#D1D1D7"></path>
    <path d="M41.383 2.62796C41.45 2.58903 41.5304 2.59805 41.606 2.59473C43.302 2.59615 44.9981 2.59852 46.6942 2.59995C47.2438 2.59758 47.8311 2.5971 48.3189 2.88577C48.6498 3.07568 48.8643 3.42226 48.9446 3.78927C49.0103 4.0955 49.0963 4.39698 49.1695 4.70179C49.2071 4.79864 49.1753 4.93823 49.0573 4.95627C47.2229 4.95959 45.3885 4.952 43.5545 4.96007C43.4238 4.952 43.2997 5.05502 43.2787 5.18321C42.8736 7.05953 42.4723 8.9368 42.0986 10.8198C42.0187 11.1977 41.9517 11.578 41.8613 11.9535C41.8342 12.0632 41.7201 12.1363 41.6098 12.1335C40.8785 12.1473 40.1467 12.1316 39.4154 12.1411C39.2942 12.1202 39.2523 11.982 39.2951 11.8781C39.9247 8.96339 40.5323 6.04399 41.1776 3.13312C41.2403 2.96363 41.1947 2.72387 41.383 2.62796Z" fill="#D1D1D7"></path>
    <path d="M4.08776 5.75137C4.11106 5.61796 4.23944 5.51825 4.37448 5.52727C5.13288 5.52633 5.89175 5.52395 6.65063 5.52822C6.79375 5.51303 6.86175 5.67113 6.81087 5.78935C6.34061 7.95481 5.87511 10.1212 5.402 12.2862C5.1828 13.2353 4.91653 14.21 4.3274 15.0043C3.90612 15.5778 3.23141 15.9415 2.52388 15.9999H0.0784553C0.0898669 15.9353 0.0637152 15.9073 0 15.9154V15.8356C0.152631 15.1762 0.313821 14.5181 0.468354 13.8591C0.487374 13.7314 0.582946 13.6051 0.720362 13.5994C0.988536 13.5857 1.25671 13.6189 1.52441 13.6032C1.79591 13.5814 2.00988 13.3848 2.1706 13.1816C2.47396 12.7819 2.66225 12.3047 2.75592 11.8143C3.17958 9.78888 3.62178 7.76727 4.08776 5.75137Z" fill="#D1D1D7"></path>
</svg>