<svg width="40" height="42" viewBox="0 0 40 42" fill="none" xmlns="http://www.w3.org/2000/svg">
    <rect y="0.645508" width="40" height="40.7092" rx="20" fill="#FFF4EC"></rect>
    <path d="M14 12.9363C14.2652 12.9363 14.5196 13.0416 14.7071 13.2292C14.8946 13.4167 15 13.6711 15 13.9363V27.9363C15 28.2015 14.8946 28.4558 14.7071 28.6434C14.5196 28.8309 14.2652 28.9363 14 28.9363C13.7348 28.9363 13.4804 28.8309 13.2929 28.6434C13.1054 28.4558 13 28.2015 13 27.9363V13.9363C13 13.6711 13.1054 13.4167 13.2929 13.2292C13.4804 13.0416 13.7348 12.9363 14 12.9363V12.9363ZM26 16.9363C26.2652 16.9363 26.5196 17.0416 26.7071 17.2292C26.8946 17.4167 27 17.6711 27 17.9363V27.9363C27 28.2015 26.8946 28.4558 26.7071 28.6434C26.5196 28.8309 26.2652 28.9363 26 28.9363C25.7348 28.9363 25.4804 28.8309 25.2929 28.6434C25.1054 28.4558 25 28.2015 25 27.9363V17.9363C25 17.6711 25.1054 17.4167 25.2929 17.2292C25.4804 17.0416 25.7348 16.9363 26 16.9363ZM20 20.9363C20.2652 20.9363 20.5196 21.0416 20.7071 21.2292C20.8946 21.4167 21 21.6711 21 21.9363V27.9363C21 28.2015 20.8946 28.4558 20.7071 28.6434C20.5196 28.8309 20.2652 28.9363 20 28.9363C19.7348 28.9363 19.4804 28.8309 19.2929 28.6434C19.1054 28.4558 19 28.2015 19 27.9363V21.9363C19 21.6711 19.1054 21.4167 19.2929 21.2292C19.4804 21.0416 19.7348 20.9363 20 20.9363Z" fill="#0D39BE"></path>
    <line x1="20" y1="27.9363" x2="20" y2="21.9363" stroke="#AA002D" stroke-width="2" stroke-linecap="round"></line>
</svg>